              total        used        free      shared  buff/cache   available
Mem:           3663        1193         206         281        2263        1905
Swap:          2047         533        1514
